*************************** START ****************************
START TIME: 202106110111
CONNECT BAUD: 115200
com port closed
set state: ESP_DL_SYNC
serial port opened
-----------
baud:115200
root baud:115200
-------------
===============BAUD : 115200===============CALL DEVICE SYNC
connecting...
chip sync ok
0x3ff00050: 47f50000
0x3ff00054: 020005e1
0x3ff00058: 6400b000
0x3ff0005c: 005ccf7f
check_err_0: 0bcheck_err_1: 00check_err_2: 00check_err_3: 02check_err_4: 0b====================
EFUSE NORMAL MODE
====================
=========================
CRC IN MODE 1: 
crc_calc_res: 100
target crc val: 100
=========================
=========================
CRC IN MODE 1:
crc_calc_res: 245
target crc val: 245
=========================
==================
EFUSE LOG:
======================
    EFUSE LOG:
    ---------------
    REG0:47F50000
    REG1:020005E1
    REG2:6400b000
    REG3:005CCF7F
    ----------------
    ====================
                                   EFUSE NORMAL MODE
                                   ====================
EFUSE CHECK PASS...48bit mac
-----------------------
 5c cf 7f 05 e1 47CUSTOM_ID: 06 40 00 00 00 0F 50 00 
MAC AP : 5E-CF-7F-05-E1-47
MAC STA: 5C-CF-7F-05-E1-47
get mac res: 1
get flash id : 0x001440e0
manufacturer_id: 0xe0
device_id: 0x4014
SET FLASH PARAMS
Wrote 4080 bytes (2936 compressed) at 0x00000000 in 0.3 seconds (effective 120.0 kbit/s)...
Hash of data verified.Wrote 413444 bytes (296966 compressed) at 0x00001000 in 26.2 seconds (effective 126.3 kbit/s)...
Hash of data verified.Wrote 4096 bytes (26 compressed) at 0x0003e000 in 0.0 seconds (effective 1927.5 kbit/s)...
Hash of data verified.Wrote 128 bytes (75 compressed) at 0x0007c000 in 0.0 seconds (effective 60.2 kbit/s)...
Hash of data verified.Wrote 4096 bytes (26 compressed) at 0x0007e000 in 0.0 seconds (effective 1927.5 kbit/s)...
Hash of data verified.
Leaving...
com closed
Use time: 29 s
Download result: PASS
*************************** END ****************************

*************************** START ****************************
START TIME: 202106110127
CONNECT BAUD: 115200
com port closed
set state: ESP_DL_SYNC
serial port opened
-----------
baud:115200
root baud:115200
-------------
===============BAUD : 115200===============CALL DEVICE SYNC
connecting...
chip sync ok
0x3ff00050: 47f50000
0x3ff00054: 020005e1
0x3ff00058: 6400b000
0x3ff0005c: 005ccf7f
check_err_0: 0bcheck_err_1: 00check_err_2: 00check_err_3: 02check_err_4: 0b====================
EFUSE NORMAL MODE
====================
=========================
CRC IN MODE 1: 
crc_calc_res: 100
target crc val: 100
=========================
=========================
CRC IN MODE 1:
crc_calc_res: 245
target crc val: 245
=========================
==================
EFUSE LOG:
======================
    EFUSE LOG:
    ---------------
    REG0:47F50000
    REG1:020005E1
    REG2:6400b000
    REG3:005CCF7F
    ----------------
    ====================
                                   EFUSE NORMAL MODE
                                   ====================
EFUSE CHECK PASS...48bit mac
-----------------------
 5c cf 7f 05 e1 47CUSTOM_ID: 06 40 00 00 00 0F 50 00 
MAC AP : 5E-CF-7F-05-E1-47
MAC STA: 5C-CF-7F-05-E1-47
get mac res: 1
get flash id : 0x001440e0
manufacturer_id: 0xe0
device_id: 0x4014
SET FLASH PARAMS
Wrote 4080 bytes (2936 compressed) at 0x00000000 in 0.3 seconds (effective 120.4 kbit/s)...
Hash of data verified.Wrote 413444 bytes (296966 compressed) at 0x00001000 in 26.2 seconds (effective 126.4 kbit/s)...
Hash of data verified.Wrote 4096 bytes (26 compressed) at 0x0003e000 in 0.0 seconds (effective 1927.5 kbit/s)...
Hash of data verified.Wrote 128 bytes (75 compressed) at 0x0007c000 in 0.0 seconds (effective 60.2 kbit/s)...
Hash of data verified.Wrote 4096 bytes (26 compressed) at 0x0007e000 in 0.0 seconds (effective 1927.5 kbit/s)...
Hash of data verified.
Leaving...
com closed
Use time: 29 s
Download result: PASS
*************************** END ****************************

